Get information about valid units — valid_udunits • units
…
    Any entry listed under symbol , symbol_aliases , 
name_singular , name_singular_aliases , name_plural , or
name_plural_aliases is valid. Additionally, any entry under
symbol or symbol_aliases may can also contain a valid prefix,
as specified by valid_udunits_prefixes() .

Note, this is primarily intended for interactive use, the exact format of the
returned dataframe may change in the future.

    Examples

valid_udunits()
#> udunits system database read from /usr/share/xml/udunits
#> # A tibble: 275 x 11
#>    symbol symbol_aliases name_singular name_singular_aliases name_plural
#>     <chr>          <chr>         <chr>                 <chr>       <chr>
#>  1      m                        meter                 metre            
#>  2     kg                     kilogram                                  
#>  3      s                       second                                  
#>  4      A                       ampere                                  
#>  5      K                       kelvin                                  
#>  6    mol                         mole                                  
#>  7     cd                      candela                                  
#>  8    rad                       radian                                  
#>  9     sr                    steradian                                  
#> 10     Hz                        hertz                                  
#> # ... with 265 more rows, and 6 more variables: name_plural_aliases <chr>,
#> #   def <chr>, definition <chr>, comment <chr>, dimensionless <lgl>,
#> #   source_xml <chr>
…
